
{
  "$id": "517912317101194610",
  "passphrase": [
    "motorway",
    "charmed",
    "patty",
    "scrimmage"
  ],
  "legend": "motrwaychedpsig",
  "key": [
    "aoceotrocdpewyd",
    "cscpocwtewopepi",
    "cgsohedsgotad",
    "sggddhcddyrhct"
  ],
  "text": "The mode of production of material life conditions the general process of social, political and intellectual life.",
  "encrypted": "ceoetsstyygdgatcghhtoryewgceaermootoigehshohrgmohdahmrisoircymwdhmhmyyshthhsyygmsomewdhiiswyyhgosm",
  "decrypted": "themodeogprodgctiogogmateriaggigecogditiogsthegegeragprocessogsociaggpogiticagagdigteggectgaggigeg"
}

